name: 'Refund Management'
description: ''
endpoints:
  -
    httpMethods:
      - GET
    uri: api/admin/refunds
    metadata:
      groupName: 'Refund Management'
      groupDescription: ''
      subgroup: ''
      subgroupDescription: ''
      title: 'Retrieve a paginated list of all refund records'
      description: |-
        Get a comprehensive list of all refunds processed in the system with detailed information
        about amounts, statuses, associated orders, and processing details. This endpoint is essential
        for financial reporting, refund tracking, customer service, and administrative oversight
        of refund operations. Includes complete audit trail for each refund transaction.
      authenticated: true
      custom: []
    headers:
      Authorization: 'Bearer {YOUR_AUTH_TOKEN}'
      Content-Type: application/json
      Accept: application/json
    urlParameters: []
    cleanUrlParameters: []
    queryParameters:
      page:
        name: page
        description: 'optional Page number for pagination. Default: 1.'
        required: false
        example: 2
        type: integer
        enumValues: []
        exampleWasSpecified: true
        nullable: false
        custom: []
      per_page:
        name: per_page
        description: 'optional Number of refunds per page (max 100). Default: 20.'
        required: false
        example: 25
        type: integer
        enumValues: []
        exampleWasSpecified: true
        nullable: false
        custom: []
      status:
        name: status
        description: 'optional Filter by refund status. Available: Pending, Processing, Refunded, Partially Refunded, Failed, Cancelled, Declined.'
        required: false
        example: Refunded
        type: string
        enumValues: []
        exampleWasSpecified: true
        nullable: false
        custom: []
      date_from:
        name: date_from
        description: 'optional Filter refunds from this date (YYYY-MM-DD format).'
        required: false
        example: '2025-01-01'
        type: string
        enumValues: []
        exampleWasSpecified: true
        nullable: false
        custom: []
      date_to:
        name: date_to
        description: 'optional Filter refunds to this date (YYYY-MM-DD format).'
        required: false
        example: '2025-01-31'
        type: string
        enumValues: []
        exampleWasSpecified: true
        nullable: false
        custom: []
      order_id:
        name: order_id
        description: 'optional Filter refunds by specific order ID.'
        required: false
        example: 45
        type: integer
        enumValues: []
        exampleWasSpecified: true
        nullable: false
        custom: []
      user_id:
        name: user_id
        description: 'optional Filter refunds by specific customer ID.'
        required: false
        example: 123
        type: integer
        enumValues: []
        exampleWasSpecified: true
        nullable: false
        custom: []
      amount_min:
        name: amount_min
        description: 'numeric optional Filter refunds with minimum amount in pounds.'
        required: false
        example: '10.00'
        type: string
        enumValues: []
        exampleWasSpecified: true
        nullable: false
        custom: []
      amount_max:
        name: amount_max
        description: 'numeric optional Filter refunds with maximum amount in pounds.'
        required: false
        example: '500.00'
        type: string
        enumValues: []
        exampleWasSpecified: true
        nullable: false
        custom: []
    cleanQueryParameters:
      page: 2
      per_page: 25
      status: Refunded
      date_from: '2025-01-01'
      date_to: '2025-01-31'
      order_id: 45
      user_id: 123
      amount_min: '10.00'
      amount_max: '500.00'
    bodyParameters: []
    cleanBodyParameters: []
    fileParameters: []
    responses:
      -
        status: 200
        content: |-
          {
              "message": "Refunds retrieved successfully.",
              "data": {
                  "data": [
                      {
                          "id": 1,
                          "amount": 2999,
                          "amount_formatted": "£29.99",
                          "processed_at": "2025-01-15T14:45:00.000000Z",
                          "notes": "Refund processed for damaged product - customer reported speaker crackling at high volume",
                          "status": {
                              "id": 3,
                              "name": "Refunded"
                          },
                          "order_return": {
                              "id": 15,
                              "reason": "Product damaged on arrival - speaker has crackling sound at any volume level",
                              "status": {
                                  "id": 7,
                                  "name": "Completed"
                              },
                              "created_at": "2025-01-14T09:30:00.000000Z",
                              "updated_at": "2025-01-15T14:45:00.000000Z",
                              "order_item": {
                                  "id": 25,
                                  "quantity": 1,
                                  "price": 2999,
                                  "price_formatted": "£29.99",
                                  "product": {
                                      "id": 12,
                                      "name": "Wireless Headphones",
                                      "description": "Premium quality wireless headphones with active noise cancellation"
                                  },
                                  "order": {
                                      "id": 8,
                                      "total_amount": 5998,
                                      "total_amount_formatted": "£59.98",
                                      "created_at": "2025-01-10T16:30:00.000000Z",
                                      "user": {
                                          "id": 3,
                                          "name": "Sarah Johnson",
                                          "email": "sarah@example.com",
                                          "email_verified_at": "2025-01-05T12:00:00.000000Z"
                                      }
                                  }
                              }
                          },
                          "created_at": "2025-01-15T14:45:00.000000Z",
                          "updated_at": "2025-01-15T14:45:00.000000Z"
                      },
                      {
                          "id": 2,
                          "amount": 7999,
                          "amount_formatted": "£79.99",
                          "processed_at": "2025-01-14T11:20:00.000000Z",
                          "notes": "Customer changed mind within return period - full refund approved",
                          "status": {
                              "id": 3,
                              "name": "Refunded"
                          },
                          "order_return": {
                              "id": 12,
                              "reason": "Changed mind about purchase - no longer needed",
                              "status": {
                                  "id": 7,
                                  "name": "Completed"
                              },
                              "order_item": {
                                  "id": 18,
                                  "quantity": 1,
                                  "price": 7999,
                                  "price_formatted": "£79.99",
                                  "product": {
                                      "id": 23,
                                      "name": "Premium Bluetooth Speaker"
                                  },
                                  "order": {
                                      "id": 6,
                                      "total_amount": 7999,
                                      "total_amount_formatted": "£79.99",
                                      "user": {
                                          "id": 7,
                                          "name": "Michael Chen",
                                          "email": "michael@example.com"
                                      }
                                  }
                              }
                          },
                          "created_at": "2025-01-14T11:20:00.000000Z",
                          "updated_at": "2025-01-14T11:20:00.000000Z"
                      },
                      {
                          "id": 3,
                          "amount": 1500,
                          "amount_formatted": "£15.00",
                          "processed_at": null,
                          "notes": "Partial refund for shipping delay compensation",
                          "status": {
                              "id": 1,
                              "name": "Processing"
                          },
                          "order_return": {
                              "id": 18,
                              "reason": "Shipping delay compensation request",
                              "status": {
                                  "id": 3,
                                  "name": "Approved"
                              },
                              "order_item": {
                                  "id": 32,
                                  "product": {
                                      "id": 45,
                                      "name": "Wireless Charging Pad"
                                  },
                                  "order": {
                                      "id": 12,
                                      "user": {
                                          "id": 15,
                                          "name": "Emma Wilson",
                                          "email": "emma@example.com"
                                      }
                                  }
                              }
                          },
                          "created_at": "2025-01-16T09:15:00.000000Z",
                          "updated_at": "2025-01-16T09:15:00.000000Z"
                      }
                  ],
                  "current_page": 1,
                  "per_page": 20,
                  "total": 127,
                  "last_page": 7,
                  "from": 1,
                  "to": 20,
                  "path": "https://yourapi.com/api/v1/admin/refunds",
                  "first_page_url": "https://yourapi.com/api/v1/admin/refunds?page=1",
                  "last_page_url": "https://yourapi.com/api/v1/admin/refunds?page=7",
                  "next_page_url": "https://yourapi.com/api/v1/admin/refunds?page=2",
                  "prev_page_url": null
              }
          }
        headers: []
        description: 'Refunds retrieved successfully'
        custom: []
      -
        status: 200
        content: |-
          {
              "message": "Refunds retrieved successfully.",
              "data": {
                  "data": [],
                  "current_page": 1,
                  "per_page": 20,
                  "total": 0,
                  "last_page": 1,
                  "from": null,
                  "to": null
              }
          }
        headers: []
        description: 'No refunds found'
        custom: []
      -
        status: 403
        content: |-
          {
              "message": "You do not have the required permissions."
          }
        headers: []
        description: 'Insufficient permissions'
        custom: []
      -
        status: 422
        content: |-
          {
              "errors": [
                  "The status field must be one of: Pending, Processing, Refunded, Partially Refunded, Failed, Cancelled, Declined.",
                  "The date from field must be a valid date in YYYY-MM-DD format.",
                  "The amount min field must be a number greater than 0.",
                  "The order id field must be an integer."
              ]
          }
        headers: []
        description: 'Invalid filter parameters'
        custom: []
    responseFields: []
    auth:
      - headers
      - Authorization
      - 'Bearer 6g43cv8PD1aE5beadkZfhV6'
    controller: null
    method: null
    route: null
    custom: []
