name: 'Payment Management'
description: ''
endpoints:
  -
    httpMethods:
      - GET
    uri: api/admin/payments
    metadata:
      groupName: 'Payment Management'
      groupDescription: ''
      subgroup: ''
      subgroupDescription: ''
      title: 'Retrieve paginated list of payments'
      description: |-
        Get a comprehensive list of all payments in the system with pagination support.
        This endpoint provides administrators with detailed payment information including
        transaction details, payment methods, amounts, statuses, and associated order information.
        Essential for financial reporting, payment reconciliation, and transaction monitoring.
      authenticated: true
      custom: []
    headers:
      Authorization: 'Bearer {YOUR_AUTH_TOKEN}'
      Content-Type: application/json
      Accept: application/json
    urlParameters: []
    cleanUrlParameters: []
    queryParameters:
      page:
        name: page
        description: 'optional Page number for pagination. Default: 1.'
        required: false
        example: 2
        type: integer
        enumValues: []
        exampleWasSpecified: true
        nullable: false
        custom: []
      per_page:
        name: per_page
        description: 'optional Number of payments per page (max 100). Default: 15.'
        required: false
        example: 25
        type: integer
        enumValues: []
        exampleWasSpecified: true
        nullable: false
        custom: []
      status:
        name: status
        description: 'optional Filter by payment status. Available: Paid, Pending, Failed, Canceled, Refunded, Partially Refunded.'
        required: false
        example: Paid
        type: string
        enumValues: []
        exampleWasSpecified: true
        nullable: false
        custom: []
      method:
        name: method
        description: 'optional Filter by payment method. Available: stripe, paypal, card, bank transfer, apple pay, google pay.'
        required: false
        example: stripe
        type: string
        enumValues: []
        exampleWasSpecified: true
        nullable: false
        custom: []
      user_id:
        name: user_id
        description: 'optional Filter payments by specific user ID.'
        required: false
        example: 123
        type: integer
        enumValues: []
        exampleWasSpecified: true
        nullable: false
        custom: []
      order_id:
        name: order_id
        description: 'optional Filter payments by specific order ID.'
        required: false
        example: 456
        type: integer
        enumValues: []
        exampleWasSpecified: true
        nullable: false
        custom: []
      date_from:
        name: date_from
        description: 'optional Filter payments from this date (YYYY-MM-DD format).'
        required: false
        example: '2025-01-01'
        type: string
        enumValues: []
        exampleWasSpecified: true
        nullable: false
        custom: []
      date_to:
        name: date_to
        description: 'optional Filter payments to this date (YYYY-MM-DD format).'
        required: false
        example: '2025-01-31'
        type: string
        enumValues: []
        exampleWasSpecified: true
        nullable: false
        custom: []
      amount_min:
        name: amount_min
        description: 'numeric optional Filter payments with minimum amount in pounds.'
        required: false
        example: '10.00'
        type: string
        enumValues: []
        exampleWasSpecified: true
        nullable: false
        custom: []
      amount_max:
        name: amount_max
        description: 'numeric optional Filter payments with maximum amount in pounds.'
        required: false
        example: '500.00'
        type: string
        enumValues: []
        exampleWasSpecified: true
        nullable: false
        custom: []
    cleanQueryParameters:
      page: 2
      per_page: 25
      status: Paid
      method: stripe
      user_id: 123
      order_id: 456
      date_from: '2025-01-01'
      date_to: '2025-01-31'
      amount_min: '10.00'
      amount_max: '500.00'
    bodyParameters: []
    cleanBodyParameters: []
    fileParameters: []
    responses:
      -
        status: 200
        content: |-
          {
            "message": "Payments retrieved successfully.",
            "data": {
              "data": [
                {
                  "id": 267,
                  "gateway": "stripe",
                  "amount": 8498,
                  "amount_formatted": "£84.98",
                  "method": "stripe",
                  "status": "Paid",
                  "transaction_reference": "pi_1Hxxxxxxxxxxxx",
                  "processed_at": "2025-01-15T14:22:00",
                  "created_at": "2025-01-15T14:21:00",
                  "updated_at": "2025-01-15T14:22:00",
                  "user": {
                    "id": 123,
                    "name": "Sarah Johnson",
                    "email": "sarah.johnson@example.com",
                    "email_verified_at": "2025-01-10T08:00:00.000000Z"
                  },
                  "order": {
                    "id": 45,
                    "total_amount": 8498,
                    "total_amount_formatted": "£84.98",
                    "status": {
                      "id": 3,
                      "name": "Confirmed"
                    },
                    "created_at": "2025-01-15T14:20:00.000000Z",
                    "updated_at": "2025-01-15T14:22:00.000000Z"
                  },
                  "payment_method": {
                    "id": 1,
                    "name": "stripe"
                  }
                },
                {
                  "id": 265,
                  "gateway": "stripe",
                  "amount": 2999,
                  "amount_formatted": "£29.99",
                  "method": "stripe",
                  "status": "Partially Refunded",
                  "transaction_reference": "pi_1Gxxxxxxxxxx",
                  "processed_at": "2025-01-10T16:32:00",
                  "created_at": "2025-01-10T16:31:00",
                  "updated_at": "2025-01-14T11:25:00",
                  "user": {
                    "id": 89,
                    "name": "Michael Chen",
                    "email": "michael.chen@example.com",
                    "email_verified_at": "2025-01-08T12:00:00.000000Z"
                  },
                  "order": {
                    "id": 38,
                    "total_amount": 2999,
                    "total_amount_formatted": "£29.99",
                    "status": {
                      "id": 9,
                      "name": "Partially Refunded"
                    },
                    "created_at": "2025-01-10T16:30:00.000000Z",
                    "updated_at": "2025-01-14T11:25:00.000000Z"
                  },
                  "payment_method": {
                    "id": 1,
                    "name": "stripe"
                  }
                },
                {
                  "id": 263,
                  "gateway": "stripe",
                  "amount": 15500,
                  "amount_formatted": "£155.00",
                  "method": "stripe",
                  "status": "Failed",
                  "transaction_reference": "pi_1Fxxxxxxxxxx",
                  "processed_at": "2025-01-08T09:15:00",
                  "created_at": "2025-01-08T09:14:00",
                  "updated_at": "2025-01-08T09:15:00",
                  "user": {
                    "id": 67,
                    "name": "Emma Wilson",
                    "email": "emma.wilson@example.com",
                    "email_verified_at": "2025-01-05T14:00:00.000000Z"
                  },
                  "order": {
                    "id": 34,
                    "total_amount": 15500,
                    "total_amount_formatted": "£155.00",
                    "status": {
                      "id": 10,
                      "name": "Failed"
                    },
                    "created_at": "2025-01-08T09:12:00.000000Z",
                    "updated_at": "2025-01-08T09:15:00.000000Z"
                  },
                  "payment_method": {
                    "id": 1,
                    "name": "stripe"
                  }
                }
              ],
              "current_page": 1,
              "per_page": 15,
              "total": 1247,
              "last_page": 84,
              "from": 1,
              "to": 15,
              "path": "https://yourapi.com/api/v1/admin/payments",
              "first_page_url": "https://yourapi.com/api/v1/admin/payments?page=1",
              "last_page_url": "https://yourapi.com/api/v1/admin/payments?page=84",
              "next_page_url": "https://yourapi.com/api/v1/admin/payments?page=2",
              "prev_page_url": null
            }
          }
        headers: []
        description: 'Payments retrieved successfully'
        custom: []
      -
        status: 200
        content: |-
          {
            "message": "Payments retrieved successfully.",
            "data": {
              "data": [
                {
                  "id": 268,
                  "gateway": "stripe",
                  "amount": 5999,
                  "amount_formatted": "£59.99",
                  "method": "stripe",
                  "status": "Pending",
                  "transaction_reference": "pi_1Jxxxxxxxxxx",
                  "processed_at": "2025-01-16T10:30:00",
                  "created_at": "2025-01-16T10:29:00",
                  "updated_at": "2025-01-16T10:30:00",
                  "user": {
                    "id": 156,
                    "name": "David Rodriguez",
                    "email": "david.rodriguez@example.com"
                  },
                  "order": {
                    "id": 47,
                    "total_amount": 5999,
                    "total_amount_formatted": "£59.99",
                    "status": {
                      "id": 1,
                      "name": "Pending Payment"
                    }
                  },
                  "payment_method": {
                    "id": 1,
                    "name": "stripe"
                  }
                }
              ],
              "current_page": 1,
              "per_page": 15,
              "total": 23,
              "last_page": 2,
              "from": 1,
              "to": 15
            }
          }
        headers: []
        description: 'Filtered payments with specific status'
        custom: []
      -
        status: 200
        content: |-
          {
            "message": "Payments retrieved successfully.",
            "data": {
              "data": [],
              "current_page": 1,
              "per_page": 15,
              "total": 0,
              "last_page": 1,
              "from": null,
              "to": null
            }
          }
        headers: []
        description: 'No payments found'
        custom: []
      -
        status: 403
        content: |-
          {
            "message": "You do not have the required permissions."
          }
        headers: []
        description: 'Insufficient permissions'
        custom: []
      -
        status: 422
        content: |-
          {
            "errors": [
              "The status field must be one of: Paid, Pending, Failed, Canceled, Refunded, Partially Refunded.",
              "The date from field must be a valid date in YYYY-MM-DD format.",
              "The amount min field must be a number greater than 0.",
              "The user id field must be an integer."
            ]
          }
        headers: []
        description: 'Invalid filter parameters'
        custom: []
    responseFields: []
    auth:
      - headers
      - Authorization
      - 'Bearer 6g43cv8PD1aE5beadkZfhV6'
    controller: null
    method: null
    route: null
    custom: []
