name: 'Vendor Review Responses'
description: ''
endpoints:
  -
    httpMethods:
      - POST
    uri: 'api/reviews/{review_id}/responses'
    metadata:
      groupName: 'Vendor Review Responses'
      groupDescription: ''
      subgroup: ''
      subgroupDescription: ''
      title: 'Store a new vendor response to a review'
      description: |-
        Allows vendors to respond to reviews on their products. Each vendor can only
        respond once per review, but can edit their response within 24 hours.
      authenticated: true
      custom: []
    headers:
      Authorization: 'Bearer {YOUR_AUTH_TOKEN}'
      Content-Type: application/json
      Accept: application/json
    urlParameters:
      review_id:
        name: review_id
        description: 'The ID of the review.'
        required: true
        example: 16
        type: integer
        enumValues: []
        exampleWasSpecified: false
        nullable: false
        custom: []
      review:
        name: review
        description: 'The ID of the review to respond to.'
        required: true
        example: 123
        type: integer
        enumValues: []
        exampleWasSpecified: true
        nullable: false
        custom: []
    cleanUrlParameters:
      review_id: 16
      review: 123
    queryParameters: []
    cleanQueryParameters: []
    bodyParameters:
      content:
        name: content
        description: 'Response content (10-1000 characters).'
        required: true
        example: '"Thank you for your feedback! We''re glad you enjoyed our product."'
        type: string
        enumValues: []
        exampleWasSpecified: true
        nullable: false
        custom: []
    cleanBodyParameters:
      content: '"Thank you for your feedback! We''re glad you enjoyed our product."'
    fileParameters: []
    responses:
      -
        status: 201
        content: |-
          {
            "message": "Response submitted successfully.",
            "data": {
              "id": 45,
              "review_id": 123,
              "vendor": {
                "id": 15,
                "name": "Tech Haven"
              },
              "user": {
                "id": 12,
                "name": "John Vendor"
              },
              "content": "Thank you for your feedback! We're glad you enjoyed our product.",
              "is_approved": true,
              "created_at": "2025-01-16T14:30:00.000000Z"
            }
          }
        headers: []
        description: 'Response created successfully'
        custom: []
      -
        status: 403
        content: |-
          {
            "message": "You can only respond to reviews on your products."
          }
        headers: []
        description: 'Not authorized to respond'
        custom: []
      -
        status: 409
        content: |-
          {
            "message": "You have already responded to this review."
          }
        headers: []
        description: 'Already responded'
        custom: []
    responseFields: []
    auth:
      - headers
      - Authorization
      - 'Bearer 6g43cv8PD1aE5beadkZfhV6'
    controller: null
    method: null
    route: null
    custom: []
  -
    httpMethods:
      - POST
    uri: 'api/reviews/{review_id}/responses/{id}'
    metadata:
      groupName: 'Vendor Review Responses'
      groupDescription: ''
      subgroup: ''
      subgroupDescription: ''
      title: 'Update an existing vendor response'
      description: |-
        Vendors can edit their response within 24 hours of creation.
        After 24 hours, responses become locked to maintain transparency.
      authenticated: true
      custom: []
    headers:
      Authorization: 'Bearer {YOUR_AUTH_TOKEN}'
      Content-Type: application/json
      Accept: application/json
    urlParameters:
      review_id:
        name: review_id
        description: 'The ID of the review.'
        required: true
        example: 16
        type: integer
        enumValues: []
        exampleWasSpecified: false
        nullable: false
        custom: []
      id:
        name: id
        description: 'The ID of the response.'
        required: true
        example: 16
        type: integer
        enumValues: []
        exampleWasSpecified: false
        nullable: false
        custom: []
      review:
        name: review
        description: 'The ID of the review.'
        required: true
        example: 123
        type: integer
        enumValues: []
        exampleWasSpecified: true
        nullable: false
        custom: []
      response:
        name: response
        description: 'The ID of the response to update.'
        required: true
        example: 45
        type: integer
        enumValues: []
        exampleWasSpecified: true
        nullable: false
        custom: []
    cleanUrlParameters:
      review_id: 16
      id: 16
      review: 123
      response: 45
    queryParameters: []
    cleanQueryParameters: []
    bodyParameters:
      content:
        name: content
        description: 'Updated response content (10-1000 characters).'
        required: true
        example: '"Thank you for your updated feedback!"'
        type: string
        enumValues: []
        exampleWasSpecified: true
        nullable: false
        custom: []
    cleanBodyParameters:
      content: '"Thank you for your updated feedback!"'
    fileParameters: []
    responses:
      -
        status: 200
        content: |-
          {
            "message": "Response updated successfully.",
            "data": {
              "id": 45,
              "content": "Thank you for your updated feedback!",
              "updated_at": "2025-01-16T15:45:00.000000Z"
            }
          }
        headers: []
        description: 'Response updated successfully'
        custom: []
      -
        status: 403
        content: |-
          {
            "message": "You can only edit your responses within 24 hours of creation."
          }
        headers: []
        description: 'Cannot edit response'
        custom: []
    responseFields: []
    auth:
      - headers
      - Authorization
      - 'Bearer 6g43cv8PD1aE5beadkZfhV6'
    controller: null
    method: null
    route: null
    custom: []
  -
    httpMethods:
      - DELETE
    uri: 'api/reviews/{review_id}/responses/{id}'
    metadata:
      groupName: 'Vendor Review Responses'
      groupDescription: ''
      subgroup: ''
      subgroupDescription: ''
      title: 'Delete a vendor response'
      description: |-
        Vendors can delete their response within 24 hours of creation.
        This action is irreversible.
      authenticated: true
      custom: []
    headers:
      Authorization: 'Bearer {YOUR_AUTH_TOKEN}'
      Content-Type: application/json
      Accept: application/json
    urlParameters:
      review_id:
        name: review_id
        description: 'The ID of the review.'
        required: true
        example: 16
        type: integer
        enumValues: []
        exampleWasSpecified: false
        nullable: false
        custom: []
      id:
        name: id
        description: 'The ID of the response.'
        required: true
        example: 16
        type: integer
        enumValues: []
        exampleWasSpecified: false
        nullable: false
        custom: []
      review:
        name: review
        description: 'The ID of the review.'
        required: true
        example: 123
        type: integer
        enumValues: []
        exampleWasSpecified: true
        nullable: false
        custom: []
      response:
        name: response
        description: 'The ID of the response to delete.'
        required: true
        example: 45
        type: integer
        enumValues: []
        exampleWasSpecified: true
        nullable: false
        custom: []
    cleanUrlParameters:
      review_id: 16
      id: 16
      review: 123
      response: 45
    queryParameters: []
    cleanQueryParameters: []
    bodyParameters: []
    cleanBodyParameters: []
    fileParameters: []
    responses:
      -
        status: 200
        content: |-
          {
            "message": "Response deleted successfully."
          }
        headers: []
        description: 'Response deleted successfully'
        custom: []
      -
        status: 403
        content: |-
          {
            "message": "You can only delete your responses within 24 hours of creation."
          }
        headers: []
        description: 'Cannot delete response'
        custom: []
    responseFields: []
    auth:
      - headers
      - Authorization
      - 'Bearer 6g43cv8PD1aE5beadkZfhV6'
    controller: null
    method: null
    route: null
    custom: []
  -
    httpMethods:
      - GET
    uri: api/vendor/responses
    metadata:
      groupName: 'Vendor Review Responses'
      groupDescription: ''
      subgroup: ''
      subgroupDescription: ''
      title: "Get vendor's responses (for vendor dashboard)"
      description: |-
        Retrieve all responses made by the authenticated vendor with filtering
        and sorting options for vendor dashboard management.
      authenticated: true
      custom: []
    headers:
      Authorization: 'Bearer {YOUR_AUTH_TOKEN}'
      Content-Type: application/json
      Accept: application/json
    urlParameters: []
    cleanUrlParameters: []
    queryParameters:
      product_id:
        name: product_id
        description: 'optional Filter by specific product ID.'
        required: false
        example: 15
        type: integer
        enumValues: []
        exampleWasSpecified: true
        nullable: false
        custom: []
      rating:
        name: rating
        description: 'optional Filter by review ratings.'
        required: false
        example:
          - 1
          - 2
        type: 'string[]'
        enumValues: []
        exampleWasSpecified: true
        nullable: false
        custom: []
      sort_by:
        name: sort_by
        description: 'optional Sort responses. Options: newest, oldest, rating_high, rating_low. Default: newest.'
        required: false
        example: newest
        type: string
        enumValues: []
        exampleWasSpecified: true
        nullable: false
        custom: []
      per_page:
        name: per_page
        description: 'optional Number of responses per page (1-50). Default: 15.'
        required: false
        example: 20
        type: integer
        enumValues: []
        exampleWasSpecified: true
        nullable: false
        custom: []
      page:
        name: page
        description: 'optional Page number for pagination. Default: 1.'
        required: false
        example: 2
        type: integer
        enumValues: []
        exampleWasSpecified: true
        nullable: false
        custom: []
    cleanQueryParameters:
      product_id: 15
      rating:
        - 1
        - 2
      sort_by: newest
      per_page: 20
      page: 2
    bodyParameters: []
    cleanBodyParameters: []
    fileParameters: []
    responses:
      -
        status: 200
        content: |-
          {
            "message": "Your responses retrieved successfully.",
            "data": {
              "data": [
                {
                  "id": 45,
                  "review": {
                    "id": 123,
                    "rating": 4,
                    "title": "Good product",
                    "content": "Works well but could be better...",
                    "user": {
                      "name": "Customer Name"
                    },
                    "product": {
                      "id": 15,
                      "name": "Premium Wireless Earbuds"
                    }
                  },
                  "content": "Thank you for your feedback!",
                  "is_approved": true,
                  "created_at": "2025-01-16T14:30:00.000000Z",
                  "can_edit": true,
                  "can_delete": true
                }
              ],
              "current_page": 1,
              "per_page": 15,
              "total": 25,
              "last_page": 2
            }
          }
        headers: []
        description: 'Responses retrieved successfully'
        custom: []
    responseFields: []
    auth:
      - headers
      - Authorization
      - 'Bearer 6g43cv8PD1aE5beadkZfhV6'
    controller: null
    method: null
    route: null
    custom: []
  -
    httpMethods:
      - GET
    uri: 'api/vendor/responses/{id}'
    metadata:
      groupName: 'Vendor Review Responses'
      groupDescription: ''
      subgroup: ''
      subgroupDescription: ''
      title: 'Get individual response details'
      description: ''
      authenticated: true
      custom: []
    headers:
      Authorization: 'Bearer {YOUR_AUTH_TOKEN}'
      Content-Type: application/json
      Accept: application/json
    urlParameters:
      id:
        name: id
        description: 'The ID of the response.'
        required: true
        example: 16
        type: integer
        enumValues: []
        exampleWasSpecified: false
        nullable: false
        custom: []
    cleanUrlParameters:
      id: 16
    queryParameters: []
    cleanQueryParameters: []
    bodyParameters: []
    cleanBodyParameters: []
    fileParameters: []
    responses:
      -
        status: 401
        content: '{"message":"Unauthenticated."}'
        headers:
          cache-control: 'no-cache, private'
          content-type: application/json
        description: null
        custom: []
    responseFields: []
    auth:
      - headers
      - Authorization
      - 'Bearer 6g43cv8PD1aE5beadkZfhV6'
    controller: null
    method: null
    route: null
    custom: []
